…
Find out which interval has the most steps on average:

```r
avg_steps_interval %>% 
  arrange(desc(avg_steps))
```

```
## # A tibble: 288 x 2
##            time_of_day avg_steps
##                 <dttm>     <dbl>
##  1 2012-01-01 08:35:00  206.1698
##  2 2012-01-01 08:40:00  195.9245
##  3 2012-01-01 08:50:00  183.3962
##  4 2012-01-01 08:45:00  179.5660
##  5 2012-01-01 08:30:00  177.3019
##  6 2012-01-01 08:20:00  171.1509
##  7 2012-01-01 08:55:00  167.0189
##  8 2012-01-01 08:15:00  157.5283
##  9 2012-01-01 08:25:00  155.3962
## 10 2012-01-01 09:00:00  143.4528
## # ... with 278 more rows
```
…
